[
  {
    "team": "core",
    "package": "@atlaskit/pagination",
    "version": "12.0.2",
    "dependent": true,
    "id": "src.main",
    "name": "main",
    "stats": {
      "size": 5981,
      "gzipSize": 2172
    }
  },
  {
    "team": "core",
    "package": "@atlaskit/pagination",
    "version": "12.0.2",
    "dependent": true,
    "id": "node_modules.main",
    "name": "node_modules [main]",
    "stats": {
      "size": 36159,
      "gzipSize": 11388
    }
  },
  {
    "team": "core",
    "package": "@atlaskit/pagination",
    "version": "12.0.2",
    "dependent": true,
    "id": "atlaskit.core.main",
    "name": "main",
    "stats": {
      "size": 48508,
      "gzipSize": 12659
    }
  },
  {
    "team": "core",
    "package": "@atlaskit/pagination",
    "version": "12.0.2",
    "dependent": true,
    "id": "combined.main",
    "name": "main",
    "stats": {
      "size": 89435,
      "gzipSize": 24882
    }
  }
]