[
  {
    "team": "core",
    "package": "@atlaskit/size-detector",
    "version": "8.0.0",
    "dependent": true,
    "id": "src.main",
    "name": "main",
    "stats": {
      "size": 3482,
      "gzipSize": 1535
    }
  },
  {
    "team": "core",
    "package": "@atlaskit/size-detector",
    "version": "8.0.0",
    "dependent": true,
    "id": "node_modules.main",
    "name": "node_modules [main]",
    "stats": {
      "size": 2717,
      "gzipSize": 993
    }
  },
  {
    "team": "core",
    "package": "@atlaskit/size-detector",
    "version": "8.0.0",
    "dependent": true,
    "id": "combined.main",
    "name": "main",
    "stats": {
      "size": 5585,
      "gzipSize": 2032
    }
  }
]