[
  {
    "team": "core",
    "package": "@atlaskit/progress-indicator",
    "version": "7.0.0",
    "dependent": true,
    "id": "src.main",
    "name": "main",
    "stats": {
      "size": 5580,
      "gzipSize": 2360
    }
  },
  {
    "team": "core",
    "package": "@atlaskit/progress-indicator",
    "version": "7.0.0",
    "dependent": true,
    "id": "node_modules.main",
    "name": "node_modules [main]",
    "stats": {
      "size": 4437,
      "gzipSize": 1510
    }
  },
  {
    "team": "core",
    "package": "@atlaskit/progress-indicator",
    "version": "7.0.0",
    "dependent": true,
    "id": "atlaskit.core.main",
    "name": "main",
    "stats": {
      "size": 17722,
      "gzipSize": 4726
    }
  },
  {
    "team": "core",
    "package": "@atlaskit/progress-indicator",
    "version": "7.0.0",
    "dependent": true,
    "id": "combined.main",
    "name": "main",
    "stats": {
      "size": 25176,
      "gzipSize": 7242
    }
  }
]