[
  {
    "team": "core",
    "package": "@atlaskit/avatar-group",
    "version": "4.0.7",
    "dependent": true,
    "id": "src.main",
    "name": "main",
    "stats": {
      "size": 6040,
      "gzipSize": 2470
    }
  },
  {
    "team": "core",
    "package": "@atlaskit/avatar-group",
    "version": "4.0.7",
    "dependent": true,
    "id": "node_modules.main",
    "name": "node_modules [main]",
    "stats": {
      "size": 93468,
      "gzipSize": 28192
    }
  },
  {
    "team": "core",
    "package": "@atlaskit/avatar-group",
    "version": "4.0.7",
    "dependent": true,
    "id": "atlaskit.core.main",
    "name": "main",
    "stats": {
      "size": 133069,
      "gzipSize": 33888
    }
  },
  {
    "team": "core",
    "package": "@atlaskit/avatar-group",
    "version": "4.0.7",
    "dependent": true,
    "id": "combined.main",
    "name": "main",
    "stats": {
      "size": 228626,
      "gzipSize": 61637
    }
  }
]