[
  {
    "team": "core",
    "package": "@atlaskit/page",
    "version": "11.0.0",
    "dependent": true,
    "id": "src.main",
    "name": "main",
    "stats": {
      "size": 5682,
      "gzipSize": 1626
    }
  },
  {
    "team": "core",
    "package": "@atlaskit/page",
    "version": "11.0.0",
    "dependent": true,
    "id": "combined.main",
    "name": "main",
    "stats": {
      "size": 5682,
      "gzipSize": 1626
    }
  }
]