[
  {
    "team": "elements",
    "package": "@atlaskit/status",
    "version": "0.9.2",
    "dependent": true,
    "id": "src.main",
    "name": "main",
    "stats": {
      "size": 8089,
      "gzipSize": 2793
    }
  },
  {
    "team": "elements",
    "package": "@atlaskit/status",
    "version": "0.9.2",
    "dependent": true,
    "id": "node_modules.main",
    "name": "node_modules [main]",
    "stats": {
      "size": 130061,
      "gzipSize": 39201
    }
  },
  {
    "team": "elements",
    "package": "@atlaskit/status",
    "version": "0.9.2",
    "dependent": true,
    "id": "atlaskit.core.main",
    "name": "main",
    "stats": {
      "size": 55861,
      "gzipSize": 14451
    }
  },
  {
    "team": "elements",
    "package": "@atlaskit/status",
    "version": "0.9.2",
    "dependent": true,
    "id": "combined.main",
    "name": "main",
    "stats": {
      "size": 192816,
      "gzipSize": 55167
    }
  }
]