[
  {
    "team": "elements",
    "package": "@atlaskit/pubsub",
    "version": "5.0.1",
    "dependent": true,
    "id": "src.main",
    "name": "main",
    "stats": {
      "size": 10554,
      "gzipSize": 3344
    }
  },
  {
    "team": "elements",
    "package": "@atlaskit/pubsub",
    "version": "5.0.1",
    "dependent": true,
    "id": "node_modules.main",
    "name": "node_modules [main]",
    "stats": {
      "size": 118010,
      "gzipSize": 30664
    }
  },
  {
    "team": "elements",
    "package": "@atlaskit/pubsub",
    "version": "5.0.1",
    "dependent": true,
    "id": "atlaskit.elements.main",
    "name": "main",
    "stats": {
      "size": 2073,
      "gzipSize": 923
    }
  },
  {
    "team": "elements",
    "package": "@atlaskit/pubsub",
    "version": "5.0.1",
    "dependent": true,
    "id": "combined.main",
    "name": "main",
    "stats": {
      "size": 129810,
      "gzipSize": 33826
    }
  }
]