[
  {
    "team": "core",
    "package": "@atlaskit/layer-manager",
    "version": "7.0.6",
    "dependent": true,
    "id": "src.main",
    "name": "main",
    "stats": {
      "size": 11795,
      "gzipSize": 3524
    }
  },
  {
    "team": "core",
    "package": "@atlaskit/layer-manager",
    "version": "7.0.6",
    "dependent": true,
    "id": "node_modules.main",
    "name": "node_modules [main]",
    "stats": {
      "size": 35852,
      "gzipSize": 9305
    }
  },
  {
    "team": "core",
    "package": "@atlaskit/layer-manager",
    "version": "7.0.6",
    "dependent": true,
    "id": "combined.main",
    "name": "main",
    "stats": {
      "size": 47007,
      "gzipSize": 11967
    }
  }
]