[
  {
    "team": "core",
    "package": "@atlaskit/textarea",
    "version": "2.0.0",
    "dependent": true,
    "id": "src.main",
    "name": "main",
    "stats": {
      "size": 10623,
      "gzipSize": 3117
    }
  },
  {
    "team": "core",
    "package": "@atlaskit/textarea",
    "version": "2.0.0",
    "dependent": true,
    "id": "node_modules.main",
    "name": "node_modules [main]",
    "stats": {
      "size": 4439,
      "gzipSize": 1509
    }
  },
  {
    "team": "core",
    "package": "@atlaskit/textarea",
    "version": "2.0.0",
    "dependent": true,
    "id": "atlaskit.core.main",
    "name": "main",
    "stats": {
      "size": 18261,
      "gzipSize": 4881
    }
  },
  {
    "team": "core",
    "package": "@atlaskit/textarea",
    "version": "2.0.0",
    "dependent": true,
    "id": "combined.main",
    "name": "main",
    "stats": {
      "size": 30600,
      "gzipSize": 8239
    }
  }
]