[
  {
    "team": "css packs",
    "package": "@atlaskit/reduced-ui-pack",
    "version": "12.0.1",
    "dependent": true,
    "id": "src.main",
    "name": "main",
    "stats": {
      "size": 50239,
      "gzipSize": 8455
    }
  },
  {
    "team": "css packs",
    "package": "@atlaskit/reduced-ui-pack",
    "version": "12.0.1",
    "dependent": true,
    "id": "node_modules.main",
    "name": "node_modules [main]",
    "stats": {
      "size": 5093,
      "gzipSize": 2127
    }
  },
  {
    "team": "css packs",
    "package": "@atlaskit/reduced-ui-pack",
    "version": "12.0.1",
    "dependent": true,
    "id": "combined.main",
    "name": "main",
    "stats": {
      "size": 54722,
      "gzipSize": 10324
    }
  }
]