[
  {
    "team": "core",
    "package": "@atlaskit/inline-message",
    "version": "10.0.4",
    "dependent": true,
    "id": "src.main",
    "name": "main",
    "stats": {
      "size": 5696,
      "gzipSize": 1972
    }
  },
  {
    "team": "core",
    "package": "@atlaskit/inline-message",
    "version": "10.0.4",
    "dependent": true,
    "id": "node_modules.main",
    "name": "node_modules [main]",
    "stats": {
      "size": 84908,
      "gzipSize": 26646
    }
  },
  {
    "team": "core",
    "package": "@atlaskit/inline-message",
    "version": "10.0.4",
    "dependent": true,
    "id": "atlaskit.core.main",
    "name": "main",
    "stats": {
      "size": 54578,
      "gzipSize": 14050
    }
  },
  {
    "team": "core",
    "package": "@atlaskit/inline-message",
    "version": "10.0.4",
    "dependent": true,
    "id": "combined.main",
    "name": "main",
    "stats": {
      "size": 143712,
      "gzipSize": 41417
    }
  }
]