[
  {
    "team": "editor",
    "package": "@atlaskit/renderer",
    "version": "49.6.1",
    "dependent": true,
    "id": "src.main",
    "name": "main",
    "stats": {
      "size": 40634,
      "gzipSize": 10940
    }
  },
  {
    "team": "editor",
    "package": "@atlaskit/renderer",
    "version": "49.6.1",
    "dependent": true,
    "id": "src.async",
    "name": "async",
    "stats": {
      "size": 9216,
      "gzipSize": 2717
    }
  },
  {
    "team": "editor",
    "package": "@atlaskit/renderer",
    "version": "49.6.1",
    "dependent": true,
    "id": "node_modules.main",
    "name": "node_modules [main]",
    "stats": {
      "size": 270165,
      "gzipSize": 80240
    }
  },
  {
    "team": "editor",
    "package": "@atlaskit/renderer",
    "version": "49.6.1",
    "dependent": true,
    "id": "node_modules.async",
    "name": "node_modules [async]",
    "stats": {
      "size": 1688451,
      "gzipSize": 502805
    }
  },
  {
    "team": "editor",
    "package": "@atlaskit/renderer",
    "version": "49.6.1",
    "dependent": true,
    "id": "atlaskit.core.main",
    "name": "main",
    "stats": {
      "size": 108355,
      "gzipSize": 27172
    }
  },
  {
    "team": "editor",
    "package": "@atlaskit/renderer",
    "version": "49.6.1",
    "dependent": true,
    "id": "atlaskit.core.async",
    "name": "async",
    "stats": {
      "size": 136239,
      "gzipSize": 25542
    }
  },
  {
    "team": "editor",
    "package": "@atlaskit/renderer",
    "version": "49.6.1",
    "dependent": true,
    "id": "atlaskit.editor.main",
    "name": "main",
    "stats": {
      "size": 113285,
      "gzipSize": 26757
    }
  },
  {
    "team": "editor",
    "package": "@atlaskit/renderer",
    "version": "49.6.1",
    "dependent": true,
    "id": "atlaskit.editor.async",
    "name": "async",
    "stats": {
      "size": 2325,
      "gzipSize": 945
    }
  },
  {
    "team": "editor",
    "package": "@atlaskit/renderer",
    "version": "49.6.1",
    "dependent": true,
    "id": "atlaskit.elements.main",
    "name": "main",
    "stats": {
      "size": 51078,
      "gzipSize": 13281
    }
  },
  {
    "team": "editor",
    "package": "@atlaskit/renderer",
    "version": "49.6.1",
    "dependent": true,
    "id": "atlaskit.elements.async",
    "name": "async",
    "stats": {
      "size": 8736,
      "gzipSize": 3127
    }
  },
  {
    "team": "editor",
    "package": "@atlaskit/renderer",
    "version": "49.6.1",
    "dependent": true,
    "id": "atlaskit.media.async",
    "name": "async",
    "stats": {
      "size": 372561,
      "gzipSize": 86950
    }
  },
  {
    "team": "editor",
    "package": "@atlaskit/renderer",
    "version": "49.6.1",
    "dependent": true,
    "id": "atlaskit.people-and-teams.main",
    "name": "main",
    "stats": {
      "size": 29409,
      "gzipSize": 6826
    }
  },
  {
    "team": "editor",
    "package": "@atlaskit/renderer",
    "version": "49.6.1",
    "dependent": true,
    "id": "atlaskit.teamwork-ecosystem.async",
    "name": "async",
    "stats": {
      "size": 624,
      "gzipSize": 367
    }
  },
  {
    "team": "editor",
    "package": "@atlaskit/renderer",
    "version": "49.6.1",
    "dependent": true,
    "id": "combined.main",
    "name": "main",
    "stats": {
      "size": 603997,
      "gzipSize": 164676
    }
  },
  {
    "team": "editor",
    "package": "@atlaskit/renderer",
    "version": "49.6.1",
    "dependent": true,
    "id": "combined.async",
    "name": "async",
    "stats": {
      "size": 2211686,
      "gzipSize": 623589
    }
  }
]