[
  {
    "team": "core",
    "package": "@atlaskit/layer",
    "version": "7.0.1",
    "dependent": true,
    "id": "src.main",
    "name": "main",
    "stats": {
      "size": 7720,
      "gzipSize": 2825
    }
  },
  {
    "team": "core",
    "package": "@atlaskit/layer",
    "version": "7.0.1",
    "dependent": true,
    "id": "node_modules.main",
    "name": "node_modules [main]",
    "stats": {
      "size": 32829,
      "gzipSize": 10184
    }
  },
  {
    "team": "core",
    "package": "@atlaskit/layer",
    "version": "7.0.1",
    "dependent": true,
    "id": "combined.main",
    "name": "main",
    "stats": {
      "size": 39935,
      "gzipSize": 12213
    }
  }
]