[
  {
    "team": "core",
    "package": "@atlaskit/field-text",
    "version": "9.0.1",
    "dependent": true,
    "id": "src.main",
    "name": "main",
    "stats": {
      "size": 6027,
      "gzipSize": 2267
    }
  },
  {
    "team": "core",
    "package": "@atlaskit/field-text",
    "version": "9.0.1",
    "dependent": true,
    "id": "node_modules.main",
    "name": "node_modules [main]",
    "stats": {
      "size": 69261,
      "gzipSize": 20828
    }
  },
  {
    "team": "core",
    "package": "@atlaskit/field-text",
    "version": "9.0.1",
    "dependent": true,
    "id": "atlaskit.core.main",
    "name": "main",
    "stats": {
      "size": 49265,
      "gzipSize": 12956
    }
  },
  {
    "team": "core",
    "package": "@atlaskit/field-text",
    "version": "9.0.1",
    "dependent": true,
    "id": "combined.main",
    "name": "main",
    "stats": {
      "size": 122722,
      "gzipSize": 34085
    }
  }
]