[
  {
    "team": "teamwork ecosystem",
    "package": "@atlaskit/outbound-auth-flow-client",
    "version": "2.0.2",
    "dependent": true,
    "id": "src.main",
    "name": "main",
    "stats": {
      "size": 1484,
      "gzipSize": 699
    }
  },
  {
    "team": "teamwork ecosystem",
    "package": "@atlaskit/outbound-auth-flow-client",
    "version": "2.0.2",
    "dependent": true,
    "id": "combined.main",
    "name": "main",
    "stats": {
      "size": 1484,
      "gzipSize": 699
    }
  }
]