[
  {
    "team": "core",
    "package": "@atlaskit/dropdown-menu",
    "version": "8.0.5",
    "dependent": true,
    "id": "src.main",
    "name": "main",
    "stats": {
      "size": 21314,
      "gzipSize": 5860
    }
  },
  {
    "team": "core",
    "package": "@atlaskit/dropdown-menu",
    "version": "8.0.5",
    "dependent": true,
    "id": "node_modules.main",
    "name": "node_modules [main]",
    "stats": {
      "size": 147470,
      "gzipSize": 41393
    }
  },
  {
    "team": "core",
    "package": "@atlaskit/dropdown-menu",
    "version": "8.0.5",
    "dependent": true,
    "id": "atlaskit.core.main",
    "name": "main",
    "stats": {
      "size": 85192,
      "gzipSize": 21655
    }
  },
  {
    "team": "core",
    "package": "@atlaskit/dropdown-menu",
    "version": "8.0.5",
    "dependent": true,
    "id": "combined.main",
    "name": "main",
    "stats": {
      "size": 250520,
      "gzipSize": 66019
    }
  }
]