[
  {
    "team": "media",
    "package": "@atlaskit/media-image",
    "version": "14.1.0",
    "dependent": true,
    "id": "src.main",
    "name": "main",
    "stats": {
      "size": 4643,
      "gzipSize": 1999
    }
  },
  {
    "team": "media",
    "package": "@atlaskit/media-image",
    "version": "14.1.0",
    "dependent": true,
    "id": "node_modules.main",
    "name": "node_modules [main]",
    "stats": {
      "size": 124292,
      "gzipSize": 25176
    }
  },
  {
    "team": "media",
    "package": "@atlaskit/media-image",
    "version": "14.1.0",
    "dependent": true,
    "id": "node_modules.async",
    "name": "node_modules [async]",
    "stats": {
      "size": 11779,
      "gzipSize": 3921
    }
  },
  {
    "team": "media",
    "package": "@atlaskit/media-image",
    "version": "14.1.0",
    "dependent": true,
    "id": "atlaskit.media.main",
    "name": "main",
    "stats": {
      "size": 26643,
      "gzipSize": 6748
    }
  },
  {
    "team": "media",
    "package": "@atlaskit/media-image",
    "version": "14.1.0",
    "dependent": true,
    "id": "atlaskit.media.async",
    "name": "async",
    "stats": {
      "size": 1702,
      "gzipSize": 736
    }
  },
  {
    "team": "media",
    "package": "@atlaskit/media-image",
    "version": "14.1.0",
    "dependent": true,
    "id": "combined.main",
    "name": "main",
    "stats": {
      "size": 155111,
      "gzipSize": 34056
    }
  },
  {
    "team": "media",
    "package": "@atlaskit/media-image",
    "version": "14.1.0",
    "dependent": true,
    "id": "combined.async",
    "name": "async",
    "stats": {
      "size": 13421,
      "gzipSize": 4450
    }
  }
]